<mxfile host="app.diagrams.net" modified="2023-10-23T11:04:36.942Z" agent="Mozilla/5.0 (Windows NT 10.0; Win64; x64) AppleWebKit/537.36 (KHTML, like Gecko) Chrome/117.0.0.0 Safari/537.36 OPR/103.0.0.0" etag="tYaETsm1xZEZesPJNrbZ" version="21.5.0" type="gitlab">
  <diagram id="nHDof8DJcpA-tqszt3Yh" name="Page-1">
    <mxGraphModel dx="1380" dy="733" grid="1" gridSize="10" guides="1" tooltips="1" connect="1" arrows="1" fold="1" page="1" pageScale="1" pageWidth="827" pageHeight="583" math="0" shadow="0">
      <root>
        <mxCell id="0" />
        <mxCell id="1" parent="0" />
        <mxCell id="kiShbtwVbIrpqFXrpl0P-31" value="" style="rounded=0;whiteSpace=wrap;html=1;align=left;" parent="1" vertex="1">
          <mxGeometry x="391" y="441" width="294" height="120" as="geometry" />
        </mxCell>
        <mxCell id="kiShbtwVbIrpqFXrpl0P-22" style="edgeStyle=orthogonalEdgeStyle;rounded=0;orthogonalLoop=1;jettySize=auto;html=1;exitX=0.25;exitY=1;exitDx=0;exitDy=0;entryX=0.25;entryY=0;entryDx=0;entryDy=0;" parent="1" target="kiShbtwVbIrpqFXrpl0P-2" edge="1">
          <mxGeometry relative="1" as="geometry">
            <mxPoint x="508" y="80" as="sourcePoint" />
          </mxGeometry>
        </mxCell>
        <mxCell id="kiShbtwVbIrpqFXrpl0P-1" value="Certification authority" style="rounded=0;whiteSpace=wrap;html=1;fillColor=#008a00;strokeColor=#005700;fontColor=#ffffff;" parent="1" vertex="1">
          <mxGeometry x="478" y="20" width="120" height="60" as="geometry" />
        </mxCell>
        <mxCell id="kiShbtwVbIrpqFXrpl0P-21" style="edgeStyle=orthogonalEdgeStyle;rounded=0;orthogonalLoop=1;jettySize=auto;html=1;exitX=0.25;exitY=1;exitDx=0;exitDy=0;entryX=0.25;entryY=0;entryDx=0;entryDy=0;" parent="1" source="kiShbtwVbIrpqFXrpl0P-2" target="kiShbtwVbIrpqFXrpl0P-3" edge="1">
          <mxGeometry relative="1" as="geometry" />
        </mxCell>
        <mxCell id="nSkwXSaMmSeAuAzocz2m-10" style="edgeStyle=none;curved=1;rounded=0;orthogonalLoop=1;jettySize=auto;html=1;exitX=0.75;exitY=0;exitDx=0;exitDy=0;entryX=0.75;entryY=1;entryDx=0;entryDy=0;fontSize=12;startSize=8;endSize=8;" parent="1" source="kiShbtwVbIrpqFXrpl0P-2" edge="1">
          <mxGeometry relative="1" as="geometry">
            <mxPoint x="568" y="80" as="targetPoint" />
          </mxGeometry>
        </mxCell>
        <mxCell id="kiShbtwVbIrpqFXrpl0P-2" value="Production/ consumption authority" style="rounded=0;whiteSpace=wrap;html=1;fillColor=#008a00;fontColor=#ffffff;strokeColor=#005700;" parent="1" vertex="1">
          <mxGeometry x="478" y="124" width="120" height="60" as="geometry" />
        </mxCell>
        <mxCell id="kiShbtwVbIrpqFXrpl0P-20" style="edgeStyle=orthogonalEdgeStyle;rounded=0;orthogonalLoop=1;jettySize=auto;html=1;exitX=0.75;exitY=0;exitDx=0;exitDy=0;entryX=0.75;entryY=1;entryDx=0;entryDy=0;" parent="1" source="kiShbtwVbIrpqFXrpl0P-3" target="kiShbtwVbIrpqFXrpl0P-2" edge="1">
          <mxGeometry relative="1" as="geometry" />
        </mxCell>
        <mxCell id="nSkwXSaMmSeAuAzocz2m-12" value="" style="edgeStyle=none;curved=1;rounded=0;orthogonalLoop=1;jettySize=auto;html=1;fontSize=12;startSize=8;endSize=8;" parent="1" source="kiShbtwVbIrpqFXrpl0P-3" target="nSkwXSaMmSeAuAzocz2m-8" edge="1">
          <mxGeometry relative="1" as="geometry" />
        </mxCell>
        <mxCell id="kiShbtwVbIrpqFXrpl0P-3" value="Scoring authority" style="rounded=0;whiteSpace=wrap;html=1;fillColor=#008a00;fontColor=#ffffff;strokeColor=#005700;" parent="1" vertex="1">
          <mxGeometry x="478" y="224" width="120" height="60" as="geometry" />
        </mxCell>
        <mxCell id="kiShbtwVbIrpqFXrpl0P-4" value="User&lt;br&gt;Producer/ Consumer" style="shape=umlActor;verticalLabelPosition=bottom;verticalAlign=top;html=1;outlineConnect=0;" parent="1" vertex="1">
          <mxGeometry x="84" y="135" width="30" height="60" as="geometry" />
        </mxCell>
        <mxCell id="kiShbtwVbIrpqFXrpl0P-28" value="block n" style="swimlane;whiteSpace=wrap;html=1;" parent="1" vertex="1">
          <mxGeometry x="611" y="471" width="60" height="70" as="geometry" />
        </mxCell>
        <mxCell id="kiShbtwVbIrpqFXrpl0P-35" value="-tr 1&lt;br&gt;- ...&lt;br&gt;-tr n" style="text;html=1;strokeColor=none;fillColor=none;align=left;verticalAlign=middle;whiteSpace=wrap;rounded=0;" parent="kiShbtwVbIrpqFXrpl0P-28" vertex="1">
          <mxGeometry y="30" width="60" height="30" as="geometry" />
        </mxCell>
        <mxCell id="kiShbtwVbIrpqFXrpl0P-29" value="block 1" style="swimlane;whiteSpace=wrap;html=1;startSize=23;" parent="1" vertex="1">
          <mxGeometry x="411" y="471" width="60" height="70" as="geometry" />
        </mxCell>
        <mxCell id="kiShbtwVbIrpqFXrpl0P-34" value="&lt;font style=&quot;font-size: 10px;&quot;&gt;-tr 1&lt;br&gt;- ...&lt;br&gt;-tr n&lt;/font&gt;" style="text;html=1;strokeColor=none;fillColor=none;align=left;verticalAlign=middle;whiteSpace=wrap;rounded=0;" parent="kiShbtwVbIrpqFXrpl0P-29" vertex="1">
          <mxGeometry y="30" width="60" height="30" as="geometry" />
        </mxCell>
        <mxCell id="kiShbtwVbIrpqFXrpl0P-30" value="block 2" style="swimlane;whiteSpace=wrap;html=1;startSize=23;" parent="1" vertex="1">
          <mxGeometry x="511" y="471" width="60" height="70" as="geometry" />
        </mxCell>
        <mxCell id="kiShbtwVbIrpqFXrpl0P-36" value="&lt;font style=&quot;font-size: 10px;&quot;&gt;-tr 1&lt;br&gt;- ...&lt;br&gt;-tr n&lt;/font&gt;" style="text;html=1;strokeColor=none;fillColor=none;align=left;verticalAlign=middle;whiteSpace=wrap;rounded=0;" parent="kiShbtwVbIrpqFXrpl0P-30" vertex="1">
          <mxGeometry y="30" width="60" height="30" as="geometry" />
        </mxCell>
        <mxCell id="HZ8eFz0FQlh6HxacxbTz-1" style="edgeStyle=orthogonalEdgeStyle;rounded=0;orthogonalLoop=1;jettySize=auto;html=1;exitX=0.5;exitY=1;exitDx=0;exitDy=0;" parent="1" source="kiShbtwVbIrpqFXrpl0P-37" target="kiShbtwVbIrpqFXrpl0P-31" edge="1">
          <mxGeometry relative="1" as="geometry" />
        </mxCell>
        <mxCell id="kiShbtwVbIrpqFXrpl0P-37" value="Participant 1" style="rounded=0;whiteSpace=wrap;html=1;fontSize=10;" parent="1" vertex="1">
          <mxGeometry x="391" y="371" width="80" height="22" as="geometry" />
        </mxCell>
        <mxCell id="HZ8eFz0FQlh6HxacxbTz-2" style="edgeStyle=orthogonalEdgeStyle;rounded=0;orthogonalLoop=1;jettySize=auto;html=1;exitX=0.5;exitY=1;exitDx=0;exitDy=0;entryX=0.5;entryY=0;entryDx=0;entryDy=0;" parent="1" source="kiShbtwVbIrpqFXrpl0P-38" target="kiShbtwVbIrpqFXrpl0P-31" edge="1">
          <mxGeometry relative="1" as="geometry" />
        </mxCell>
        <mxCell id="kiShbtwVbIrpqFXrpl0P-38" value="..." style="rounded=0;whiteSpace=wrap;html=1;fontSize=10;" parent="1" vertex="1">
          <mxGeometry x="498" y="371" width="80" height="22" as="geometry" />
        </mxCell>
        <mxCell id="HZ8eFz0FQlh6HxacxbTz-3" style="edgeStyle=orthogonalEdgeStyle;rounded=0;orthogonalLoop=1;jettySize=auto;html=1;exitX=0.5;exitY=1;exitDx=0;exitDy=0;" parent="1" source="kiShbtwVbIrpqFXrpl0P-39" target="kiShbtwVbIrpqFXrpl0P-31" edge="1">
          <mxGeometry relative="1" as="geometry" />
        </mxCell>
        <mxCell id="kiShbtwVbIrpqFXrpl0P-39" value="Participant n" style="rounded=0;whiteSpace=wrap;html=1;fontSize=10;" parent="1" vertex="1">
          <mxGeometry x="605" y="371" width="80" height="22" as="geometry" />
        </mxCell>
        <mxCell id="nSkwXSaMmSeAuAzocz2m-3" value="" style="image;aspect=fixed;perimeter=ellipsePerimeter;html=1;align=center;shadow=0;dashed=0;spacingTop=3;image=img/lib/active_directory/laptop_client.svg;fontSize=16;" parent="1" vertex="1">
          <mxGeometry x="232" y="109" width="27" height="30" as="geometry" />
        </mxCell>
        <mxCell id="nSkwXSaMmSeAuAzocz2m-4" value="" style="image;aspect=fixed;perimeter=ellipsePerimeter;html=1;align=center;shadow=0;dashed=0;spacingTop=3;image=img/lib/active_directory/cell_phone.svg;fontSize=16;" parent="1" vertex="1">
          <mxGeometry x="221" y="149" width="16.8" height="40" as="geometry" />
        </mxCell>
        <mxCell id="nSkwXSaMmSeAuAzocz2m-5" value="" style="image;aspect=fixed;perimeter=ellipsePerimeter;html=1;align=center;shadow=0;dashed=0;spacingTop=3;image=img/lib/active_directory/mac_client.svg;fontSize=16;" parent="1" vertex="1">
          <mxGeometry x="259" y="168" width="28.2" height="30" as="geometry" />
        </mxCell>
        <mxCell id="nSkwXSaMmSeAuAzocz2m-6" value="" style="image;aspect=fixed;perimeter=ellipsePerimeter;html=1;align=center;shadow=0;dashed=0;spacingTop=3;image=img/lib/active_directory/pda.svg;fontSize=16;" parent="1" vertex="1">
          <mxGeometry x="269" y="114" width="18.9" height="35" as="geometry" />
        </mxCell>
        <mxCell id="nSkwXSaMmSeAuAzocz2m-8" value="" style="rounded=0;whiteSpace=wrap;html=1;fontSize=16;fillColor=#FF0000;fontColor=#000000;strokeColor=#FF0000;opacity=20;" parent="1" vertex="1">
          <mxGeometry x="361" y="311" width="349" height="256" as="geometry" />
        </mxCell>
        <mxCell id="nSkwXSaMmSeAuAzocz2m-11" value="Blockchain ecosystem&amp;nbsp;" style="text;html=1;strokeColor=none;fillColor=none;align=center;verticalAlign=middle;whiteSpace=wrap;rounded=0;fontSize=16;" parent="1" vertex="1">
          <mxGeometry x="444" y="311" width="210" height="30" as="geometry" />
        </mxCell>
        <mxCell id="nSkwXSaMmSeAuAzocz2m-13" value="" style="ellipse;shape=cloud;whiteSpace=wrap;html=1;fontSize=16;opacity=20;fillColor=#FF0000;" parent="1" vertex="1">
          <mxGeometry x="169" y="71" width="170" height="170" as="geometry" />
        </mxCell>
        <mxCell id="nSkwXSaMmSeAuAzocz2m-14" value="IoT" style="text;html=1;strokeColor=none;fillColor=none;align=center;verticalAlign=middle;whiteSpace=wrap;rounded=0;fontSize=16;" parent="1" vertex="1">
          <mxGeometry x="232" y="198" width="60" height="30" as="geometry" />
        </mxCell>
        <mxCell id="nSkwXSaMmSeAuAzocz2m-15" value="" style="endArrow=classic;startArrow=classic;html=1;rounded=0;fontSize=12;startSize=8;endSize=8;curved=1;entryX=0.16;entryY=0.55;entryDx=0;entryDy=0;entryPerimeter=0;" parent="1" source="kiShbtwVbIrpqFXrpl0P-4" target="nSkwXSaMmSeAuAzocz2m-13" edge="1">
          <mxGeometry width="50" height="50" relative="1" as="geometry">
            <mxPoint x="390" y="330" as="sourcePoint" />
            <mxPoint x="440" y="280" as="targetPoint" />
          </mxGeometry>
        </mxCell>
        <mxCell id="nSkwXSaMmSeAuAzocz2m-20" value="" style="rounded=0;whiteSpace=wrap;html=1;fontSize=16;fillColor=#FF0000;fontColor=#000000;strokeColor=#FF0000;opacity=20;" parent="1" vertex="1">
          <mxGeometry x="46" y="500" width="40" height="23" as="geometry" />
        </mxCell>
        <mxCell id="nSkwXSaMmSeAuAzocz2m-21" value="&lt;font style=&quot;font-size: 12px;&quot;&gt;Standard technologies&lt;/font&gt;" style="text;html=1;strokeColor=none;fillColor=none;align=center;verticalAlign=middle;whiteSpace=wrap;rounded=0;fontSize=16;" parent="1" vertex="1">
          <mxGeometry x="68" y="496.5" width="170" height="30" as="geometry" />
        </mxCell>
        <mxCell id="nSkwXSaMmSeAuAzocz2m-22" value="" style="rounded=0;whiteSpace=wrap;html=1;fontSize=16;fillColor=#008a00;fontColor=#ffffff;strokeColor=#005700;" parent="1" vertex="1">
          <mxGeometry x="46" y="460" width="40" height="23" as="geometry" />
        </mxCell>
        <mxCell id="nSkwXSaMmSeAuAzocz2m-23" value="&lt;font style=&quot;font-size: 12px;&quot;&gt;&amp;nbsp; &amp;nbsp; &amp;nbsp;Implemented components&lt;/font&gt;" style="text;html=1;strokeColor=none;fillColor=none;align=center;verticalAlign=middle;whiteSpace=wrap;rounded=0;fontSize=16;" parent="1" vertex="1">
          <mxGeometry x="69" y="456.5" width="170" height="30" as="geometry" />
        </mxCell>
        <mxCell id="nSkwXSaMmSeAuAzocz2m-25" value="" style="endArrow=classic;html=1;rounded=0;fontSize=12;startSize=8;endSize=8;exitX=0.55;exitY=0.95;exitDx=0;exitDy=0;exitPerimeter=0;entryX=0;entryY=0.5;entryDx=0;entryDy=0;" parent="1" target="nSkwXSaMmSeAuAzocz2m-8" edge="1">
          <mxGeometry width="50" height="50" relative="1" as="geometry">
            <mxPoint x="264.5" y="232.5" as="sourcePoint" />
            <mxPoint x="461" y="280" as="targetPoint" />
            <Array as="points">
              <mxPoint x="265" y="440" />
            </Array>
          </mxGeometry>
        </mxCell>
        <mxCell id="nSkwXSaMmSeAuAzocz2m-28" value="" style="endArrow=classic;startArrow=classic;html=1;rounded=0;fontSize=12;startSize=8;endSize=8;curved=1;entryX=0;entryY=0.5;entryDx=0;entryDy=0;exitX=0.88;exitY=0.25;exitDx=0;exitDy=0;exitPerimeter=0;" parent="1" source="nSkwXSaMmSeAuAzocz2m-13" target="kiShbtwVbIrpqFXrpl0P-1" edge="1">
          <mxGeometry width="50" height="50" relative="1" as="geometry">
            <mxPoint x="390" y="330" as="sourcePoint" />
            <mxPoint x="440" y="280" as="targetPoint" />
            <Array as="points">
              <mxPoint x="380" y="50" />
            </Array>
          </mxGeometry>
        </mxCell>
        <mxCell id="nSkwXSaMmSeAuAzocz2m-29" value="" style="endArrow=classic;startArrow=classic;html=1;rounded=0;fontSize=12;startSize=8;endSize=8;curved=1;entryX=0;entryY=0.5;entryDx=0;entryDy=0;exitX=0.875;exitY=0.5;exitDx=0;exitDy=0;exitPerimeter=0;" parent="1" source="nSkwXSaMmSeAuAzocz2m-13" target="kiShbtwVbIrpqFXrpl0P-2" edge="1">
          <mxGeometry width="50" height="50" relative="1" as="geometry">
            <mxPoint x="390" y="330" as="sourcePoint" />
            <mxPoint x="440" y="280" as="targetPoint" />
          </mxGeometry>
        </mxCell>
        <mxCell id="nSkwXSaMmSeAuAzocz2m-30" value="" style="endArrow=classic;startArrow=classic;html=1;rounded=0;fontSize=12;startSize=8;endSize=8;curved=1;entryX=0;entryY=0.5;entryDx=0;entryDy=0;exitX=0.96;exitY=0.7;exitDx=0;exitDy=0;exitPerimeter=0;" parent="1" source="nSkwXSaMmSeAuAzocz2m-13" target="kiShbtwVbIrpqFXrpl0P-3" edge="1">
          <mxGeometry width="50" height="50" relative="1" as="geometry">
            <mxPoint x="390" y="330" as="sourcePoint" />
            <mxPoint x="440" y="280" as="targetPoint" />
            <Array as="points">
              <mxPoint x="380" y="260" />
            </Array>
          </mxGeometry>
        </mxCell>
      </root>
    </mxGraphModel>
  </diagram>
</mxfile>
